{
  "data": [
    {
      "created_time": "2017-04-01T12:56:37+0000",
      "message": "Gratulujeme všem 11 500 běžcům, kteří se dnes vydali na trať Sportisimo Prague Half Marathon 2017 a také Joyciline Jepkosgeiové, která s časem 1:04:52 zaběhla světový rekord. 🎉 Máme ohromnou radost, že můžeme být partnerem RunCzech a těšíme se na vás na dalších závodech (y)",
      "story": "O2 CZ added 6 new photos.",
      "id": "120461304659141_1403524949686097"
    },
    {
      "created_time": "2017-03-31T15:57:00+0000",
      "message": "Cítíte ve vzduchu taky to jaro? 🌸 Pusťte si ho do šatníku. Nahrajte do komentářů fotku svého jarního #OOTD 👗 Pro pět z vás máme 1000 Kč na další radost ze ZOOT Nenechte si upláchnout extra výhodu 20 % na vše nezlevněné ➡ od.o2.cz/jarovsatniku Platí už jen do pátku.\nPravidla soutěže ➡ od.o2.cz/pravidlazoot",
      "id": "120461304659141_1402606389777953"
    },
    {
      "created_time": "2017-03-31T06:00:00+0000",
      "message": "Kdo pozná, jaké české město je na 360° fotce? :)\nChytrá síť teď přinesla neomezený Internet na doma na 99 % adres. Ověřte si tu svoji ➡http://od.o2.cz/Inavasiadrese\n\n#99CZOnline",
      "id": "120461304659141_1401392856565973"
    },
    {
      "created_time": "2017-03-30T18:11:10+0000",
      "message": "➡ od.o2.cz/poslednidny ⬅\nTablety k Internetu na doma jdou na dračku - tak si pospěšte a ověřte si dostupnost u vás ;)",
      "id": "120461304659141_1399583640080228"
    },
    {
      "created_time": "2017-03-30T15:04:03+0000",
      "message": "Natočili jsme pro vás guru video o novém Galaxy S8 a S8+ ! 😍 Co na něj říkáte? Předobjednejte si novou vlajkovou loď Samsungu ještě dnes. Garantujeme vám, že těšit se z něj budete už 20.dubna ➡ od.o2.cz/telefon_bez_hranic",
      "story": "O2 CZ feeling excited.",
      "id": "120461304659141_1401577096547549"
    },
    {
      "created_time": "2017-03-30T06:22:00+0000",
      "message": "Je ho plný internet. Jeden z nejsledovanějších telefonů tohoto roku Samsung Galaxy S8 a S8+ vás taky nadchne. :) \nPředobjednejte si ho ještě dnes a těšit se z něj můžete už 20.dubna \n➡ od.o2.cz/chci_se_nadchnout",
      "id": "120461304659141_1401050613266864"
    },
    {
      "created_time": "2017-03-29T21:07:45+0000",
      "message": "Prohlédněte si nový Samsung Galaxy S8 a S8+ zblízka :) Nafotili jsme ho pro vás hned po skončení livestreamu. Jak se vám nový Galaxy líbí? Předobjednejte si ten svůj ➡ od.o2.cz/chci_svou_s8\nDostanete ho 8 dnů před spuštěním prodeje (y)",
      "story": "O2 CZ added 7 new photos.",
      "id": "120461304659141_1400948249943767"
    },
    {
      "created_time": "2017-03-29T16:40:19+0000",
      "message": "Představení nového Samsung Galaxy :)\nBuďte mezi prvními majiteli ➡ od.o2.cz/NovyS8",
      "story": "O2 CZ was live — with Samsung Česko a Slovensko.",
      "id": "120461304659141_1400790083292917"
    },
    {
      "created_time": "2017-03-29T11:53:58+0000",
      "message": "Livestream s představením nového Samsungu Galaxy s O2 Guru Alex sledujte už dnes večer. :)",
      "story": "O2 CZ was live.",
      "id": "120461304659141_1400570616648197"
    },
    {
      "created_time": "2017-03-28T16:37:22+0000",
      "message": "Sledujte představení nového Samsungu Galaxy ŽIVĚ přímo tady hned po skončení Galaxy Unpacked! ⬅ \nZAČÍNÁME VE STŘEDU V 18.30 S NAŠÍ O2 GURU ALEX. (y) Ptejte se nás na vše, co vás k nové vlajkové lodi Samsung Mobile zajímá. V livestreamu vám na ně bude odpovídat Alex společně se svým (tajným) hostem. :)",
      "id": "120461304659141_1399876873384238"
    },
    {
      "created_time": "2017-03-27T19:00:00+0000",
      "message": "5...4...3... Pořád váháte s pořízením Internetu na doma? :)\nTak si rychle ověřte jeho dostupnost u vás\n➡ od.o2.cz/Posledni-tablety ⬅\nTablety totiž dáváme jen do 5. dubna!",
      "id": "120461304659141_1398913840147208"
    },
    {
      "created_time": "2017-03-26T16:35:00+0000",
      "message": "Na tuhle novinku čekají všichni instagrameři :) Huawei spolupracoval s Leicou už na modelu P9. Teď přichází ještě vymakanější Huawei P10! Předobjednejte si ho u nás a my vám k němu dáme sadu příslušenství v hodnotě 3000 Kč zdarma. ➡ od.o2.cz/nejfotak",
      "id": "120461304659141_1396052637099995"
    },
    {
      "created_time": "2017-03-26T07:48:00+0000",
      "message": "Připravte se do bloků, pozor, start! ➡ Sprint o poslední startovné na pražský Sportisimo 1/2 Maraton právě odstartoval! (y) Ulovte si poslední místa s 10% slevou ➡ od.o2.cz/ja_to_dam",
      "story": "O2 CZ with Kačka Koderová.",
      "id": "120461304659141_1396057713766154"
    },
    {
      "created_time": "2017-03-25T16:24:00+0000",
      "message": "Kolik kafe 🍵 do sebe dokážete dostat, aby vás nevyhodili z Wi-Fi v kavárně? Teď už můžete surfovat z pohodlí domova. (y) \nOvěřte si, že neomezený Internet na doma je teď i na vaší adrese ➡ od.o2.cz/u_me_doma\n#99CZonline",
      "id": "120461304659141_1396049167100342"
    },
    {
      "created_time": "2017-03-24T16:17:27+0000",
      "message": "Taky jste zvědaví na nový song, který spolu nahrají LENNY a Paulie Garand? Buďte u toho! :) Sledujte v pondělí odpoledne livestream přímo z nahrávacího studia. Vezmeme vás tam (y)",
      "id": "120461304659141_1396021973769728"
    },
    {
      "created_time": "2017-03-22T15:02:00+0000",
      "message": "Kapička potu vám stéká z čela, nohy těžknou a srdce buší jako o závod? Nevzdávejte to a pusťte si na Spotify svůj běžecký power song! 🎵 Sdílejte ho v komentářích jako odkaz na Spotify a vyhrajte Honor 8 (y) My z vašich tipů navíc složíme ultimátní playlist pro ty nejlepší výkony na závodech RunCzech.\nPravidla ➡od.o2.cz/pravidlarunczech",
      "id": "120461304659141_1392957380742854"
    },
    {
      "created_time": "2017-03-21T21:36:28+0000",
      "story": "O2 CZ shared O2 TV's post — feeling sorry.",
      "id": "120461304659141_1393384467366812"
    },
    {
      "created_time": "2017-03-21T14:38:01+0000",
      "message": "Telefon, kterému nikdy nedojde šťáva? Takový zatím nevedeme. Zato pro vás máme stylový a výkonný smartphone, který na jedno nabití vydrží dva dny! :) BUDE VÁŠ? Zastavte GIF v momentě, kdy telefon ukazuje plně nabitou baterii, a screenshot vložte do komentářů. Dnes hrajeme o tři powerbanky od Huawei a nový Honor 6X ➡ od.o2.cz/pravidlaaa\nNa vybrané Honory teď máme pro všechny naše zákazníky super slevu. (y) Mrkněte se do e-shopu ➡ od.o2.cz/vydrzidvadny",
      "id": "120461304659141_1393063414065584"
    },
    {
      "created_time": "2017-03-18T09:40:00+0000",
      "message": "Je čas na změnu :) Pořiďte si třeba úplně nový Huawei P9 lite (2017) nebo Samsung řady A. Výměnou za váš stávající telefon vám na něj dáme slevu 1000 Kč ➡ od.o2.cz/chcislevuu",
      "id": "120461304659141_1387960181242574"
    },
    {
      "created_time": "2017-03-17T19:00:01+0000",
      "message": "Ke každému Internetu na doma teď dáváme tablet za 1 Kč ;)\nOvěřte si dostupnost ➡od.o2.cz/tablet-zakacku",
      "id": "120461304659141_1389631694408756"
    },
    {
      "created_time": "2017-03-17T07:00:00+0000",
      "message": "Kdo pozná, jaké české město je na 360° fotce? :)\nChytrá síť teď přinesla neomezený Internet na doma na 99 % adres. Ověřte si tu svoji ➡http://od.o2.cz/Inavasiadrese\n\n#99CZOnline",
      "id": "120461304659141_1389043961134196"
    },
    {
      "created_time": "2017-03-16T14:26:02+0000",
      "message": "Teď už heslo k sousedově wi-fi hádat nemusíte. Pokryli jsme totiž 99 % adres neomezeným Internetem na doma.\nOvěřte si, že teď je i u vás ➡ od.o2.cz/unasdoma\n#99CZOnline",
      "id": "120461304659141_1387916657913593"
    },
    {
      "created_time": "2017-03-15T14:13:32+0000",
      "message": "Volume doprava, něco se chystá ^_^ Už 27. března můžete sledovat #O2LiveSession s LENNY a Paulie Garand. CHCETE BÝT U TOHO? ➡ Vložte do komentářů screenshot svého oblíbeného songu na Spotify a VYHRAJTE VSTUP NA NAHRÁVÁNÍ pro sebe a někoho dalšího.\nPravidla ➡ od.o2.cz/SLSpravidla",
      "id": "120461304659141_1387793947925864"
    },
    {
      "created_time": "2017-03-13T18:14:28+0000",
      "message": "Chytrá síť přináší neomezený Internet na doma na 99 % adres. (y)\nOvěřte si dostupnost u sebe doma ➡ od.o2.cz/overitsi",
      "id": "120461304659141_1386222754749650"
    },
    {
      "created_time": "2017-03-14T17:24:11+0000",
      "message": "Volume doprava 🎧  Něco se chystá! \nZapněte si upozornění na livestreamy na O2 CZ a sledujte 27.března ŽIVĚ nahrávání nového songu, který spolu nazpívají LENNY a Paulie Garand. #O2LiveSession",
      "story": "O2 CZ was live.",
      "id": "120461304659141_1388090681229524"
    },
    {
      "created_time": "2017-03-13T14:07:01+0000",
      "message": "Hrajte s námi o nový Honor 6X a selfie tyč na vymazlená selfíčka. :) Vložte do komentáře selfie s kámošem a označte ho v popisku.\nPravidla ➡ od.o2.cz/selficka\nNa vybrané Honory teď máme pro všechny naše zákazníky super slevu. (y) Mrkněte se do e-shopu: od.o2.cz/honorlevne",
      "id": "120461304659141_1385918771446715"
    },
    {
      "created_time": "2017-03-10T19:08:34+0000",
      "message": "Chytrá síť vám teď přináší Neomezený Internet na doma na 99 % adres. 😉\nPřesvědčte se sami a ověřte si dostupnost ➡️ od.o2.cz/99czonline\n#99CZonline",
      "id": "120461304659141_1382749705096955"
    },
    {
      "created_time": "2017-03-10T07:00:00+0000",
      "message": "Už dnes večer 👀",
      "id": "120461304659141_1381120528593206"
    },
    {
      "created_time": "2017-03-09T12:55:22+0000",
      "message": "Čau ahoj z O2 Guru veletrhu! 😊\nS O2 Gurus, kteří vám pomáhají na prodejnách po celé ČR, si právě hrajeme s nejnovějšími HiTech věcičkami a telefony. Tak, abychom vám vždy mohli poradit a inspirovat i v roce 2017. Na O2 prodejnách i tady na sociálních sítích.\n\nVaši O2 Guru <3",
      "story": "O2 CZ feeling excited with Martin Svoboda and 2 others at O2 arena.",
      "id": "120461304659141_1380775088627750"
    },
    {
      "created_time": "2017-03-08T17:35:33+0000",
      "message": "Už jste slyšeli nové album Ed Sheeran? 🎶 🎶 🎶 \nPusťte si ho na Spotify ➡ od.o2.cz/diviide Třeba dvacetkrát za sebou (jako jsme to udělali my), protože Spotify u O2 data nečerpá (y)",
      "id": "120461304659141_1377813512257241"
    },
    {
      "created_time": "2017-03-08T06:18:00+0000",
      "message": "Hey ženy, krásný MDŽ vám přejeme 🌹",
      "id": "120461304659141_1377786555593270"
    },
    {
      "created_time": "2017-03-07T09:22:00+0000",
      "message": "Trávíte hodně času za volantem? HRAJTE S NÁMI O HONOR 6X a držák do auta! Zastavte GIF ve chvíli, kdy projíždí modré auto a screenshot vložte do komentářů. ⬇ Pravidla ➡ od.o2.cz/frciime\nSlevu pro všechny naše zákazníky na vybrané modely značky Honor najdete i na našem e-shopu ➡ od.o2.cz/honorseslevou",
      "id": "120461304659141_1377339578971301"
    },
    {
      "created_time": "2017-03-03T17:33:00+0000",
      "message": "S novým Lenovo Moto Z vám šťáva nedojde. :) Našim zákazníkům k němu totiž dáme jako dárek přídavnou baterii Incipio, která prodlouží výdrž telefonu o 22 hodin. (y) K telefonu ji připevníte úplně jednoduše - magnetem. Podívejte se sami ➡ od.o2.cz/uznikdybezstavy",
      "id": "120461304659141_1373124276059498"
    },
    {
      "created_time": "2017-03-02T17:33:00+0000",
      "message": "Co je horší, než si zapomenout telefon?\nDejte LIKE pokud taky znáte ten pocit :D",
      "id": "120461304659141_1372056746166251"
    },
    {
      "created_time": "2017-03-02T12:38:53+0000",
      "message": "Přesvědčte se sami na www.o2.cz/internet\n#99CZonline",
      "story": "O2 CZ updated their cover photo.",
      "id": "120461304659141_1371915442847048"
    },
    {
      "created_time": "2017-03-01T16:43:50+0000",
      "message": "Lenovo Moto Z Play je telefon mnoha tváří. Díky příslušenství Moto Mods a magnetickým zádům z něj během chvilky uděláte špičkový reproduktor, fotoaparát, projektor, nebo zvýšíte kapacitu jeho baterie o 60 %. \nJEN MY VÁM K NĚMU DÁME DÁREK ➡ reproduktor JBL Sound Boost v hodnotě 3199 Kč ➡ od.o2.cz/shudboutojdelip",
      "id": "120461304659141_1371111109594148"
    },
    {
      "created_time": "2017-02-27T17:13:02+0000",
      "message": "Ten moment, když zjistíte, že tady něco nehraje...\nNebo hraje? 🎶 ➡ od.o2.cz/tisic-neprijatych-hovoru\n\nVyzvedněte si Spotify Premium na 3 měsíce zdarma a nenechte se rušit reklamou ➡ od.o2.cz/premiumzdarma",
      "id": "120461304659141_1368818766490049"
    },
    {
      "created_time": "2017-02-23T15:55:01+0000",
      "message": "Co poslouchá Berlín, když prší ☔, nebo Oslo, když svítí slunce ☀ ? Lidi ze Spotify a AccuWeather dali hlavy dohromady a sestavili playlisty podle toho, co nejčastěji posloucháme v závislosti na počasí. Pusťte si je třeba hned teď  ➡ weather.withspotify.com \nProtože u O2 Spotify data nečerpá. (y)",
      "story": "O2 CZ with Matej Maindl and Matej Mandela.",
      "id": "120461304659141_1364515220253737"
    },
    {
      "created_time": "2017-02-22T15:25:06+0000",
      "message": "Ulovte si lístky jako první a zajistěte si místo na koncertě ro(c)ku! 🎤 OLYMPIC letos slaví 55 let. :) Využijte přednostního nákupu vstupenek. Zbývá pár hodin ➡ od.o2.cz/olympici",
      "id": "120461304659141_1363690337002892"
    },
    {
      "created_time": "2017-02-20T15:44:03+0000",
      "message": "Upgradujte na lepší model :) Vyberte si smartphone, který frčí na LTE. Přineste nám svůj současný telefon a dáme vám za něj slevu 500 Kč nebo 1000 Kč na nový. Už jste viděli třeba novou řadu Samsung Galaxy A? I tu máme :)",
      "id": "120461304659141_1361040520601207"
    },
    {
      "created_time": "2017-02-20T09:52:22+0000",
      "message": "Historicky první tenisový turnaj unikátního formátu Evropa versus Svět Laver Cup se odehraje v Praze. Roger Federer a Rafa Nadal se představí bok po boku v jednom týmu. Předběhněte frontu a buďte první, kdo získá lístky. (y) ➡ od.o2.cz/lavercup",
      "id": "120461304659141_1360968313941761"
    },
    {
      "created_time": "2017-02-17T16:40:00+0000",
      "message": "Pro naše zákazníky máme vždy něco extra :) Teď je to třeba sleva 1000 Kč na iPhone SE a 1500 Kč na iPhone 6S. A protože chceme, aby váš telefon vypadal vždy jako nový, dáme vám k němu i 20% slevu na kvalitní tvrzené sklo na display nebo zadní kryt na telefon. (y) Mrkněte k nám do e-shopu ➡ od.o2.cz/jablecny_dzus",
      "id": "120461304659141_1357693534269239"
    },
    {
      "created_time": "2017-02-16T17:48:00+0000",
      "message": "V loňském roce jste nám napsali rekordní počet příspěvků. :) Zmínili jste nás 430 000 krát a co jste nám psali nejčastěji? ⬇⬇⬇",
      "id": "120461304659141_1356347707737155"
    },
    {
      "created_time": "2017-02-15T23:10:34+0000",
      "story": "O2 CZ updated their profile picture.",
      "id": "120461304659141_1355491461156113"
    },
    {
      "created_time": "2017-02-15T23:10:14+0000",
      "message": "Venku je zima a vy nevíte kam o víkendu? Vyrazte na lyže, do aquaparku nebo do muzea ➡ od.o2.cz/zimnivyhody",
      "story": "O2 CZ updated their cover photo.",
      "id": "120461304659141_1355491227822803"
    },
    {
      "created_time": "2017-02-15T16:28:07+0000",
      "message": "COS UDĚLAL PRO SVOU LÁSKU TY?\nValentýn je za náma a já můžu být zase drsnej jak hipsterský strniště! Roztepali jsme tisíce srdcí a některým z vás se skoro povedlo rozbrečet umělou inteligenci <3 Posílám velkej DÍK a MÍR!",
      "story": "O2 CZ feeling in love.",
      "id": "120461304659141_1355121281193131"
    },
    {
      "created_time": "2017-02-13T15:19:37+0000",
      "message": "Amor prej na Valentýna na všechno nestačí a má strach z lítání. A tak se vrací Snůp bot, silný jak první Láska, aby z vás dostal tu nej flow vašich citů! Napište mu do zprávy a vytvoř si valentýnku nebo MEME!\n\nPiš mi na ➡od.o2.cz/NapisSnupovi",
      "id": "120461304659141_1352999581405301"
    },
    {
      "created_time": "2017-02-13T15:15:28+0000",
      "message": "Amor prej na Valentýna na všechno nestačí a má strach z lítání. A tak se vrací Snůp bot, silný jak první Láska, aby z vás dostal tu nej flow vašich citů! Napište mu do zprávy!\n\nPiš mi na ➡ m.me/o2cz",
      "story": "O2 CZ updated their cover photo.",
      "id": "120461304659141_1352998058072120"
    },
    {
      "created_time": "2017-02-13T15:10:50+0000",
      "message": "Amor prej na Valentýna na všechno nestačí a má strach z lítání. A tak se vrací Snůp bot, silný jak první Láska, aby z vás dostal tu nej flow vašich citů! Napište mu do zprávy!\n\nPiš mi na ➡ m.me/o2cz",
      "story": "O2 CZ updated their profile picture.",
      "id": "120461304659141_1352995024739090"
    },
    {
      "created_time": "2017-02-11T17:11:52+0000",
      "message": "Pořád nevíte, co na Valentýna? <3 Načerpejte inspiraci v Extra výhodách a ušetřete. Dárek zabalíte do luxusní krabičky od Giftisimo ➡ od.o2.cz/krasnydarek Užijte si večer v Divadlo Palace ➡ od.o2.cz/randevdivadle nebo ji potěšte kyticí FRUTIKO plnou ovoce ➡ od.o2.cz/lepsikvetina Letošní Valentýn bude nezapomenutelný <3",
      "id": "120461304659141_1351429764895616"
    },
    {
      "created_time": "2017-02-09T16:59:20+0000",
      "message": "Je to láska na celý život. <3 Tak ji potěšte letos něčím nečekaným. Co třeba Apple watch v Rose Gold? Nebo iPhone o 1500 Kč výhodněji a příslušenství s 20% slevou? U nás vyberete ten správný dárek pro nejlepší holku pod sluncem. 🎁 od.o2.cz/pronejlepsiholku",
      "id": "120461304659141_1349679401737319"
    },
    {
      "created_time": "2017-02-08T17:38:00+0000",
      "message": "Květiny dává každý, překvapte kyticí plnou ovoce. 🍓 🍉 🍊 \nPro pět z vás máme poukázku na 500 Kč do e-shopu frutiko.cz Napište do komentářů, s kým byste si letos přáli oslavit svátek zamilovaných <3 a označte ji/ho. Kytice plné ovoce nebo pralinek seženete v Extra výhodách o 20 % výhodněji ➡ od.o2.cz/letosprekvapim\nPravidla ➡ od.o2.cz/frutiko",
      "id": "120461304659141_1348787078493218"
    },
    {
      "created_time": "2017-02-06T16:46:00+0000",
      "message": "Dejte LIKE (y) kdo to taky znáte :D",
      "id": "120461304659141_1346739598697966"
    },
    {
      "created_time": "2017-02-04T10:17:00+0000",
      "message": "Vyrazte na hory. :) Díky Extra výhodám ušetříte! Mrkněte se, kde všude můžete vyvětrat lyže nebo snowboard ➡ od.o2.cz/lyzovackaa a nebo si zahrajte o skipasy zdarma. Napište nám do komentářů, na který svah byste nejradši vyrazili a proč. Deštné, Ještěd, Rokytnice nad Jizerou nebo Monínec? Pravidla ➡ od.o2.cz/chcinalyzovacku",
      "id": "120461304659141_1344381345600458"
    },
    {
      "created_time": "2017-02-02T17:20:00+0000",
      "message": "Přicházíme s vylepšenou řadou modelů Samsung A3 a Samsung A5. Vzhled high-end telefonů, snímač otisků prstů nebo slot na paměťové karty. Novou řadu A si zamilujete <3\n➡ od.o2.cz/okrokbliz",
      "id": "120461304659141_1342440729127853"
    },
    {
      "created_time": "2017-02-01T19:22:00+0000",
      "message": "Smartwatch, které zvládnou náročné podmínky a pořád vypadají stylově? I takové máme. ;) Mrkněte na Samsung Gear S3. Máme jak Classic ➡ od.o2.cz/S3classic, tak Frontier ➡ od.o2.cz/S3frontier\nNebo vás nejvíce zaujal náramek Gear Fit 2? ➡ od.o2.cz/S_GearFit2",
      "story": "O2 CZ feeling amazed.",
      "id": "120461304659141_1341299662575293"
    },
    {
      "created_time": "2017-02-02T16:27:38+0000",
      "message": "Taky nemůžete přestat dokud neprasknete poslední? :D\nNajděte si chvilku na uklidňující potěšení. Tento týden slavíme relaxační účinky bublinkové folie!\nStahujte Spotify ➡od.o2.cz/stahujSPOTI",
      "id": "120461304659141_1342475192457740"
    },
    {
      "created_time": "2017-01-27T13:06:26+0000",
      "message": "Tohle bude bomba 💣 Vychutnejte si pořádnou nálož adrenalinových X Games 2017 z Aspenu jen za 69 Kč na kanále O2 TV Sport ➡ ➡ ➡ od.o2.cz/sport_na_den",
      "id": "120461304659141_1333950276643565"
    },
    {
      "created_time": "2017-01-26T17:20:00+0000",
      "message": "Komu fandíte vy? :)",
      "story": "O2 CZ shared O2 TV's photo — feeling excited.",
      "id": "120461304659141_1332933490078577"
    },
    {
      "created_time": "2017-01-25T13:54:04+0000",
      "message": "¿ǝN ¿uǝp ɐz sǝup ǝɾ oɔ 'ǝʇíΛ\nTak až to zjistíte, zkuste po zbytek dne používat telefon DRUHOU RUKOU.  :) A do komentářů nám pak dejte vědět, jak to šlo. ⬇⬇⬇",
      "id": "120461304659141_1331478510224075"
    },
    {
      "created_time": "2017-01-23T17:54:42+0000",
      "message": "Před pár dny jsme vám představili nabušené sportovní hodinky Garmin Fénix 3. Máme tu ale i něco pro ty, kterým stačí smartwatch, které zvládnou základní funkce, ale zato skvěle. (y)\nKteré si vyberete? Garmin Forerunner 35  ➡ od.o2.cz/forerunnerforme nebo Garmin Vivoactive ➡ od.o2.cz/iamvivoactive ?",
      "id": "120461304659141_1328747240497202"
    },
    {
      "created_time": "2017-01-20T17:32:36+0000",
      "message": "Jste klasici nebo bez telefonu nevíte ani to, která bije? :) \nSrdíčko 💙 nebo like (y) ?",
      "id": "120461304659141_1325766690795257"
    },
    {
      "created_time": "2017-01-20T12:27:04+0000",
      "message": "UPDATE: Technické problémy se nám podařilo před 15. hodinou vyřešit. Spojování hovorů už probíhá v pořádku. Ještě jednou se omlouváme za komplikace. \n_________________\nNěkteří naši zákazníci v části Prahy a středních Čech mohou mít nyní problém s voláním ve 3G síti. Pro spojení hovorů doporučujeme v telefonu ručně nastavit síť 2G. Omlouváme se za komplikace, kolegové intenzivně pracují na nápravě.",
      "story": "O2 CZ was feeling sorry.",
      "id": "120461304659141_1325600690811857"
    },
    {
      "created_time": "2017-01-19T15:39:16+0000",
      "message": "Buďte první, kdo bude mít v kapse lístky na podzimní koncert skupiny Chinaski (OFFICIAL) v O2 areně! \nVyzvedněte si svůj kód TADY ➡ od.o2.cz/predbehnoutfrontu a na 16.listopad si už nic dalšího neplánujte 💙",
      "id": "120461304659141_1324864364218823"
    },
    {
      "created_time": "2017-01-18T18:13:00+0000",
      "message": "Sportovci, zbystřete! Máme skladem ty nejnabušenější sportovní hodinky Garmin Fénix 3 ➡ od.o2.cz/jsemsportovec",
      "story": "O2 CZ feeling amazed.",
      "id": "120461304659141_1323955700976356"
    },
    {
      "created_time": "2017-01-17T17:46:00+0000",
      "message": "Fandíme hvězdným českým tenistům a tenistkám ⭐ Sledujte Australian Open v té nejlepší kvalitě na O2 TV Tenis. :)",
      "story": "O2 CZ shared O2 TV's photo.",
      "id": "120461304659141_1323045774400682"
    },
    {
      "created_time": "2017-01-17T13:37:20+0000",
      "message": "Jako první operátor na světě přicházíme s OS Android 7.0 Nougat pro telefony Samsung GALAXY S7 a S7 egde. Společně s ním jsme také spustili volání v síti LTE (VoLTE) - díky němu budou vaše hovory rychleji spojeny se zvukem v HD kvalitě.\n\nVoLTE si můžete jako první vyzkoušet na Samsung GALAXY S7 a S7 edge, které máme pro naše zákazníky do konce ledna se slevou 5 000 Kč. Více na www.o2.cz/osobni/LTE",
      "story": "O2 CZ with Ota Svejda.",
      "id": "120461304659141_1322976514407608"
    },
    {
      "created_time": "2017-01-16T17:47:00+0000",
      "message": "Spotify do své desktopové appky schovalo jedno překvapení. S naší nápovědou ho určitě najdete :)\nŽe ještě nemáte Spotify? ➡ od.o2.cz/taktosihorychlestahnete",
      "id": "120461304659141_1322294287809164"
    },
    {
      "created_time": "2017-01-13T17:14:31+0000",
      "message": "Je to zase tady, období pololetních testů a zkouškového 📖 Čeká na vás o víkendu hora zápisků a učebnic? Pusťte si k tomu playlist, který vám pomůže se soustředit ➡ od.o2.cz/tuzkouskumusimzvladnoutsam",
      "id": "120461304659141_1319672364738023"
    },
    {
      "created_time": "2017-01-12T16:22:00+0000",
      "message": "Užijte si sněhové nadílky dokud drží a vyrazte na hory! :) Díky Extra výhodám získáte Skipas za nejlepší cenu. Který svah si vyberete? \n➡ od.o2.cz/chci_skipas",
      "id": "120461304659141_1318645954840664"
    },
    {
      "created_time": "2017-01-12T14:11:23+0000",
      "message": "⚠  ⚠  ⚠\nUPDATE: Potíže už se nám podařilo odstranit, všechny webové služby už jsou zase dostupné.\n\n_____________________________\n\nNěkteří naši zákazníci mohou aktuálně zaznamenat potíže s fungováním webu www.o2.cz a přihlášením do aplikací O2 (O2 TV, Moje O2). Za způsobené nepříjemnosti se velice omlouváme, intenzivně pracujeme na nápravě.\nVáš tým O2 Guru",
      "id": "120461304659141_1318617698176823"
    },
    {
      "created_time": "2017-01-11T17:10:02+0000",
      "message": "Přiznejte se, kolik je tu mezi námi běžců? :) Připomeňte si s námi loňský běžecký rok v dokumentu RunCzech 2016 už ve čtvrtek ve 13:50 na ČT1 nebo tady ➡ od.o2.cz/runczech16\nI my už trénujeme na příští O2 Pražskou štafetu. Potkáme se v cíli? (y)",
      "id": "120461304659141_1317654258273167"
    },
    {
      "created_time": "2017-01-11T09:18:58+0000",
      "message": "Je tady někdo z Hodonína? :)\nPřijďte se dnes podívat do naší zbrusu nové O2 Prodejny na Národní třídě. Ta nahrazuje původní prodejnu v ulici Svatopluka Čecha.\n\nJen dnes tam pro vás máme 20% slevu na veškeré příslušenství k vašemu telefonu a tabletu. Tak se stavte, těšíme se na vás.",
      "story": "O2 CZ feeling festive in Hodonín.",
      "id": "120461304659141_1317390328299560"
    },
    {
      "created_time": "2017-01-10T16:39:51+0000",
      "message": "Co máte právě dnes v uších? :) \nPochlubte se v komentářích.\n\nPokud nemáte, stahujte Spotify➡od.o2.cz/StahujSpoti",
      "id": "120461304659141_1316839235021336"
    },
    {
      "created_time": "2017-01-09T16:47:32+0000",
      "message": "Telefon s jablíčkem dnes slaví 10 let! <3\nKteré z nich jste měli vy?",
      "id": "120461304659141_1315959961775930"
    },
    {
      "created_time": "2017-01-06T17:36:00+0000",
      "message": "Jak se vám líbí nová aplikace Extra výhod? :) \nStahovat můžete na Google Play ➡ od.o2.cz/extra_app\nnebo na App Store ➡ od.o2.cz/vyhody_app",
      "id": "120461304659141_1313508722021054"
    },
    {
      "created_time": "2017-01-05T16:05:00+0000",
      "message": "Klávesnice a myška nebo starý dobrý gamepad? \nJakých gamerů je tu nejvíc? :)",
      "story": "O2 CZ with Tomiss Zirovnicky.",
      "id": "120461304659141_1312555632116363"
    },
    {
      "created_time": "2017-01-05T09:06:08+0000",
      "message": "Do nového roku s novým telefonem. :) Koukněte se po něm třeba v našem e-shopu. Máme slevy! :) ➡ od.o2.cz/slevicky",
      "story": "O2 CZ updated their cover photo.",
      "id": "120461304659141_1312317262140200"
    },
    {
      "created_time": "2017-01-03T18:02:00+0000",
      "message": "Apple Watch jsou pro každého majitele iPhonu takovou jeho prodlouženou rukou. :) Druhý model Apple Watch má navíc GPS, display s lepší svítivostí na slunci, a je voděodolný. Tak kdy s nimi vyrazíte do bazénu? \n➡ od.o2.cz/hodinky_s_vodotryskem",
      "id": "120461304659141_1311050938933499"
    },
    {
      "created_time": "2017-01-02T17:14:44+0000",
      "message": "Vítáme v rodině O2 TV další přírůstek. Tak ať se vám líbí ;)",
      "story": "O2 CZ shared O2 TV's photo — feeling festive.",
      "id": "120461304659141_1310264692345457"
    },
    {
      "created_time": "2017-01-02T09:00:23+0000",
      "message": "📢 Ceny smartphonů padají!\nPodívejte se na všechny slevy ➡od.o2.cz/Vyprodej-telefonu",
      "id": "120461304659141_1309976525707607"
    },
    {
      "created_time": "2016-12-31T12:00:00+0000",
      "message": ">>>VOLUME DOPRAVA<<< 8|\n\nAni takovým profíkům jako jsou O2 Guru Saša, Kuba a Ondra se nevyhnou přeřeky a záchvaty smíchu během natáčení. Mrkejte.\n\nPřejeme krásného Silvestra!",
      "id": "120461304659141_1306393286065931"
    },
    {
      "created_time": "2016-12-30T10:21:18+0000",
      "message": "Děkujeme, že jste s námi :)\nPřejeme jen to nejlepší do roku 2017. #PF2017",
      "story": "O2 CZ updated their cover photo.",
      "id": "120461304659141_1306418946063365"
    },
    {
      "created_time": "2016-12-27T14:27:01+0000",
      "message": "Zahrajte si s námi o 20 smartphonů s 4G LTE ;)\nTipněte si, kolik dat přenese síť O2 na Silvestra.  \nTipujte do formuláře na ➡mobil.idnes.cz/soutez-o2.aspx",
      "story": "O2 CZ with Marek Hadroušek and 2 others.",
      "id": "120461304659141_1302512809787312"
    },
    {
      "created_time": "2016-12-24T19:01:49+0000",
      "message": "Tak co vám Ježíšek naježil? 🎄\nOboje je fajn, a tak dnes o půlnoci vybereme ze všech hlasujících 2 výherce. Jednoho odměníme novým sedmičkovým iPhonem a druhého ponožkami Happy Socks.\n⭐⭐⭐⭐⭐⭐⭐⭐\nPravidla soutěže najdete tady ➡ http://blog.o2.cz/livestream",
      "story": "O2 CZ was live.",
      "id": "120461304659141_1299723030066290"
    },
    {
      "created_time": "2016-12-23T14:15:43+0000",
      "message": "Tak jo, už na nás jde vánoční nálada :) Co u vás?",
      "story": "O2 CZ shared Johny Machette's video.",
      "id": "120461304659141_1298931403478786"
    },
    {
      "created_time": "2016-12-23T14:03:39+0000",
      "message": "Krásné Vánoce <3\n\nPS: Posíláme výběr nejlepších vánočních songů na Spotify: www.o2.cz/osobni/pf-2017/",
      "story": "O2 CZ updated their cover photo.",
      "id": "120461304659141_1298925556812704"
    },
    {
      "created_time": "2016-12-22T19:00:00+0000",
      "message": "Taky\npíšete\nzprávy\ntakhle? :D",
      "id": "120461304659141_1298217640216829"
    },
    {
      "created_time": "2016-12-21T16:51:36+0000",
      "message": "Letos to budou možná první Vánoce, kdy zapomenete, že Harry jde do baráku...\nPočkat, na to se zapomenout nedá :) \nVyzvedněte si vánoční nadílku ➡od.o2.cz/kevin-sam",
      "story": "O2 CZ watching Home Alone.",
      "id": "120461304659141_1297435876961672"
    },
    {
      "created_time": "2016-12-20T17:33:31+0000",
      "message": "Proč si nenadělit ještě více radosti? Hrajeme o poukázky do Bonami.cz! Napište nám do komentářů, kdo ve vašem okolí vás vždy umí potěšit a sdílíte s ním všechny malé i velké radosti. <3\nExtra výhodu 10 % na vše do Bonami můžete využít do konce roku ➡ od.o2.cz/slevanavsezbonami\nPravidla ➡ od.o2.cz/chcisiudelatradost",
      "id": "120461304659141_1296475013724425"
    },
    {
      "created_time": "2016-12-19T18:16:25+0000",
      "message": "Je libo slevu 6 000 Kč na Samsung GALAXY S7? :)\nJen 21. prosince\nJen na O2 Prodejně Praha Vyskočilova od.o2.cz/vyskocilka\nJen 77 kusů\nTak si pro něj přijďte, vyjde vás na 13 795 Kč.\n\nKolem téhle O2 Prodejny si totiž můžete vyzkoušet nejrychlejší mobilní internet 4G LTE+ s rychlostí až 300 Mb/s. Samsung Galaxy S7 je jeden z mála telefonů, který je na tuhle rychlost připravený.",
      "id": "120461304659141_1295667883805138"
    },
    {
      "created_time": "2016-12-19T16:04:33+0000",
      "message": "Čas vánočních večírků je v plném proudu :) Svezte se domů s Taxify. Díky Extra výhodám dostanete 300 Kč na první jízdu. \n➡ od.o2.cz/konec_mrznuti_na_zastavkach",
      "id": "120461304659141_1295487137156546"
    },
    {
      "created_time": "2016-12-18T14:42:35+0000",
      "message": "Máte kolem sebe někoho, kdo si potrpí na design a miluje vychytávky? :) Udělejte mu radost na Bonami.cz. Díky Extra výhodám navíc o 10 % výhodněji ➡ od.o2.cz/stylovky_pod_stromecek",
      "id": "120461304659141_1292844717420788"
    },
    {
      "created_time": "2016-12-17T16:33:01+0000",
      "message": "Letos možná zapomenete koupit vánoční stromeček... S naší nadílkou je totiž možné zapomenout na leccos. :) \nUž jste si rozbalili svých 30 GB, neomezené volání, maximum programů nebo nejrychlejší internet? ➡ od.o2.cz/rozbalit_nadilku",
      "id": "120461304659141_1292821117423148"
    },
    {
      "created_time": "2016-12-16T17:47:04+0000",
      "message": "Aktivujte si platbu v Google Play skrze vyúčtování od O2 a dostanete od nás 100 Kč za první nákup nazpět. Mezitím se mrkněte, které aplikace se vám budou hodit, hlavně o Vánocích. 🎄 \nJak získat stovku do Google Play? ➡ od.o2.cz/chcikiloo",
      "id": "120461304659141_1292801627425097"
    },
    {
      "created_time": "2016-12-15T15:19:14+0000",
      "message": "Letos možná zapomenete perníčky o něco déle v troubě... Ve své O2 TV totiž najdete maximum programů a tomu se prostě nedá odolat :) \nJeště nemáte O2 TV? ➡ od.o2.cz/pohadkove_vanoce",
      "id": "120461304659141_1291667537538506"
    },
    {
      "created_time": "2016-12-14T19:00:34+0000",
      "message": "Kdo už má aktivováno? :)\nKdo ne, vyzvedněte si nadílku na➡od.o2.cz/30_GB",
      "id": "120461304659141_1290645594307367"
    },
    {
      "created_time": "2016-12-14T15:00:34+0000",
      "message": "Pusťte si ty nejlepší vánoční playlisty na Spotify, zakousněte čerstvé perníčky a hoďte se konečně do vánoční nálady. Tak jako O2 Guru Saša ;)\nPokud ještě Spotify bez čerpání dat nemáte, stahujte ➡od.o2.cz/vanocniSpotify",
      "id": "120461304659141_1290606917644568"
    },
    {
      "created_time": "2016-12-13T16:29:17+0000",
      "message": "Spotify všem svým věrným hudebním závislákům poslalo do mailu žebříček vašich nejposlouchanějších interpretů a skupin .🎵🎵\n Mrkněte se na to a pochlubte se tady v komentářích. Možná vás to překvapí :)",
      "story": "O2 CZ feeling curious.",
      "id": "120461304659141_1289392614432665"
    },
    {
      "created_time": "2016-12-13T11:13:01+0000",
      "message": "Rozdáváme dárky na o2active.cz :) Každý den velká sleva na něco jiného. Už máte čtení na Vánoce? \nVyberte si ➡ od.o2.cz/darek_kazdy_den",
      "id": "120461304659141_1289394581099135"
    }
  ]
}