{
  "data": [
    {
      "created_time": "2016-12-12T17:16:00+0000",
      "message": "Ty nejlepší kousky pod stromeček teď najdete v našem eshopu za nejnižší cenu. (y) Tak šup pro ně, než budou pryč :)",
      "id": "120461304659141_1288594004512526"
    },
    {
      "created_time": "2016-12-11T18:22:28+0000",
      "message": "Někteří naši zákazníci se mohli v neděli večer setkat s výpadkem O2 TV. Moc nás to mrzí - omlouváme se. V tuto chvíli je již vše v pořádku.  \nVaši O2 Guru",
      "id": "120461304659141_1287712287934031"
    },
    {
      "created_time": "2016-12-11T15:25:05+0000",
      "message": "Lámete si hlavu s dárky? Oblíbeným parfémem nic nezkazíte :) Vyberte ten správný v SEPHORA. Díky Extra výhodám ušetříte a namísto jednoho dárku můžete pod stromeček schovat třeba rovnou dva. 💜 \n➡ od.o2.cz/chci_ji_prekvapit",
      "id": "120461304659141_1285759554795971"
    },
    {
      "created_time": "2016-12-09T17:57:49+0000",
      "message": "OKTAGON MMA jde do finále! Proti sobě se postaví Gábor Boráros a Jakub Běle. Buďte u toho s námi. Fanděte LIVE už v sobotu ve 20:00 na O2 TV Sport!",
      "id": "120461304659141_1285752011463392"
    },
    {
      "created_time": "2016-12-08T16:27:46+0000",
      "message": "Taky si krátíte čas v autobuse hraním her? :|] Získejte od nás 100 Kč do své oblíbené hry úplně zdarma. (y) Stačí si aktivovat placení v Google Play skrze vyúčtování od O2. Jak na to? ➡ od.o2.cz/chci_kilo",
      "id": "120461304659141_1266990793339514"
    },
    {
      "created_time": "2016-12-07T16:14:00+0000",
      "message": "Letos možná poprvé zapomenete dopsat dopis pro Ježíška. S 30 GB dat jde totiž zapomenout na kde co. :) Už jste si rozbalili svůj dárek? ➡ od.o2.cz/rozbalitdarek",
      "id": "120461304659141_1282569105115016"
    },
    {
      "created_time": "2016-12-06T16:17:00+0000",
      "message": "Taky vás štve, že je tak brzy tma? :-/ Jednu výhodu to ale má. Dlouhé zimní večery, kdy můžete zabořit nos do knížky a utéct do světa fantazie. :) Napište nám, který příběh je váš nejoblíbenější a proč. Pro 15 z vás máme poukázky do Neoluxoru.\nPravidla ➡ od.o2.cz/vanocnicteni",
      "id": "120461304659141_1282562918448968"
    },
    {
      "created_time": "2016-12-06T12:00:01+0000",
      "message": "Jsme moc rádi, že můžeme být generálním partnerem Linka bezpečí <3\nPodpořte Linku i vy na www.cojestesti.cz",
      "story": "O2 CZ shared Linka bezpečí's video.",
      "id": "120461304659141_1281265671912026"
    },
    {
      "created_time": "2016-12-05T17:49:01+0000",
      "message": "Podívali jste se už za okno? Třeba tam na vás čeká překvapení. :) A nebo si můžete svou zaslouženou nadílku vyzvednout tady ➡ od.o2.cz/chcinadilku",
      "id": "120461304659141_1281562701882323"
    },
    {
      "created_time": "2016-12-03T17:18:00+0000",
      "message": "Nadělujeme dva měsíce internetu za nižší cenu, takže je dost možné, že letos poprvé zapomenete dozdobit vánoční stromeček. :) \n➡ od.o2.cz/zaradtenejvyssirychlost",
      "id": "120461304659141_1278937118811548"
    },
    {
      "created_time": "2016-12-02T17:53:01+0000",
      "message": "Víme, že chcete dát svým nejbližším pod stromeček něco extra.💙  \nProto jsme ještě před svátky zlevnili ty nejlepší kousky od Apple. \nKterý vyberete? ➡ od.o2.cz/jablecnarodina",
      "id": "120461304659141_1278194508885809"
    },
    {
      "created_time": "2016-12-01T17:48:37+0000",
      "message": "Nezapomněli jste dnes na něco? :)\nLIKE kdo už si snědl svou první čokoládu z adventního kalendáře (y)",
      "id": "120461304659141_1277071688998091"
    },
    {
      "created_time": "2016-11-30T19:22:03+0000",
      "message": "Tenisek není nikdy dost :) V Extra výhodách teď najdete 20% slevu na ty z Footshop ➡ od.o2.cz/neposlusneteniskyjamam",
      "id": "120461304659141_1275769212461672"
    },
    {
      "created_time": "2016-11-29T18:49:00+0000",
      "message": "Huawei P9 je telefon pro fotografy. V našem e-shopu k němu nadělujeme i chytrý náramek. Ten vám při vašich fotovýletech změří srdeční aktivitu, nebo počet kroků.\nHRAJTE S NÁMI o jednu P9 s chytrým náramkem. Napište nám do komentářů, kdo se podílel na vývoji fotoaparátu u tohoto smartphonu.\n\nPravidla ➡ od.o2.cz/P9_pravidla\nHuawei P9 + Color Band A1 ➡  od.o2.cz/chcifotitjakosibik",
      "story": "O2 CZ with Katherin J Claros Salazar.",
      "id": "120461304659141_1275089532529640"
    },
    {
      "created_time": "2016-11-29T15:45:01+0000",
      "message": "Najděte našeho maskota, vyfoťte se s ním a hrajte o nový  smartphone. (y) Jezdíme po celé České republice a zdaleka ještě nejsme v cíli. Podívejte se, kdy dorazíme právě k vám. ➡ od.o2.cz/chcismartphone",
      "id": "120461304659141_1274996325872294"
    },
    {
      "created_time": "2016-11-28T16:55:00+0000",
      "message": "Letos možná zapomenete vyjídat okénka adventního kalendáře. :O Naše vánoční nadílka je totiž tak lákavá, že se vám může stát, že některé věci zkrátka úplně vypustíte z hlavy. ;) \nNadělujeme to nejlepší z Chytré sítě ➡ od.o2.cz/chcisvujdarek",
      "id": "120461304659141_1274079225964004"
    },
    {
      "created_time": "2016-11-26T08:37:01+0000",
      "message": "Získejte kredit zdarma nebo smartwatch. (y) Tipujte v soutěži počet provolaných minut s předplaDENkou. ➡ www.simzdarma.cz/soutez",
      "story": "O2 CZ shared Simzdarma.cz's photo.",
      "id": "120461304659141_1271081782930415"
    },
    {
      "created_time": "2016-11-25T17:15:01+0000",
      "message": "Zařaďte nejvyšší rychlost. 🚙 Surfujte dva měsíce na rychlejším internetu. Řekněte si o svůj dárek na ➡ od.o2.cz/nejvyssirychlost",
      "id": "120461304659141_1271050159600244"
    },
    {
      "created_time": "2016-11-24T17:53:01+0000",
      "message": "Paletku NAKED od Urban Decay Cosmetics používá snad každá beauty blogerka. Máte ve svém okolí slečnu, která se zajímá o líčení a kosmetiku? Tímto dárkem si ji zaručeně získáte. <3 V Extra výhodách teď máme vše od této značky o 20 % výhodněji. (y) \n➡ ➡ ➡ od.o2.cz/chcinaked",
      "id": "120461304659141_1270195943018999"
    },
    {
      "created_time": "2016-11-23T17:43:31+0000",
      "message": "Darujte letos dvojitou radost :) K Samsungu S7 nebo S7 Edge našim zákazníkům teď přibalíme i Gear VR. Napadá vás, komu by takový dárek udělal největší radost? Označte ho v příspěvku a třeba už budete mít brzy jeden vánoční dárek vyřešený. (y)\nJak na to? ➡ od.o2.cz/jakvyhratprokamoseS7\nS7 se slevou 1500 Kč a Gear VR zdarma máme už teď v našem e-shopu ➡  od.o2.cz/chcidvojitouradost",
      "id": "120461304659141_1269259113112682"
    },
    {
      "created_time": "2016-11-22T19:35:41+0000",
      "message": "Ten moment, když se snažíte vygooglit proč spadl Google...",
      "id": "120461304659141_1268513766520550"
    },
    {
      "created_time": "2016-11-22T18:18:00+0000",
      "message": "Letošní Vánoce si užijete maximum pohádek :) Podívejte se, jaký dárek na vás čeká ve vaší O2 TV. Ještě ji nemáte? ➡ od.o2.cz/chcio2tv",
      "id": "120461304659141_1268315906540336"
    },
    {
      "created_time": "2016-11-21T18:17:01+0000",
      "message": "Už jsou na cestě a jsou perfektní ;) \nApple Watch míří do našeho e-shopu. Chcete je mít jako první? Dáme vám včas vědět ➡ od.o2.cz/chcijeprvni",
      "id": "120461304659141_1267221286649798"
    },
    {
      "created_time": "2016-11-18T19:47:00+0000",
      "message": "To nejlepší z Chytré sítě si teď užijete dva měsíce naplno! Vyzkoušejte si, co vše vám naše Chytrá síť umožní. ➡ od.o2.cz/prozkoumat_to",
      "id": "120461304659141_1264323840272876"
    },
    {
      "created_time": "2016-11-16T18:44:00+0000",
      "message": "Vánoce jsou o rodině a přátelích. Buďte se svými blízkými. Díky naší Chytré síti se spojíte i s těmi z daleka nebo si vychutnáte chvíle pohody u pohádek v O2 TV. Už jste si rozbalili svůj dárek? 🎁",
      "id": "120461304659141_1262371230468137"
    },
    {
      "created_time": "2016-11-15T18:44:00+0000",
      "message": "Už jste se podívali na svůj první letošní dárek? Nadělujeme to nejlepší z Chytré sítě. Rozbalte si neomezené volání, nebo 30 GB dat, nejrychlejší internet, nebo maximum programů v O2 TV.\n➡ od.o2.cz/to_nej",
      "id": "120461304659141_1261195400585720"
    },
    {
      "created_time": "2016-11-11T18:13:00+0000",
      "message": "Na Ježíška čekat nemusíte. ;) V O2 nadělujeme už teď. Pořiďte si nový smartphone a ušetřete 700 Kč. Celou vánoční nabídku najdete tady\n ➡ od.o2.cz/vanocnitelefony",
      "id": "120461304659141_1256322151073045"
    },
    {
      "created_time": "2016-11-10T18:35:00+0000",
      "message": "Pozor, ať o letošních Vánocích na nic nezapomenete... :) \nUž jste si rozbalili svou nadílku? ➡ od.o2.cz/mojenadilka",
      "id": "120461304659141_1254957717876155"
    },
    {
      "created_time": "2016-11-09T17:35:00+0000",
      "message": "Na dva měsíce pouštíme všechny služby na maximum. Rozbalte si svůj vánoční dárek ➡ od.o2.cz/daaarky",
      "id": "120461304659141_1253778174660776"
    },
    {
      "created_time": "2016-11-08T19:00:00+0000",
      "message": "Letos o Vánocích nadělujeme 30 GB dat nebo neomezené volání, nejrychlejší internet a maximum programů 🎁\nTak si rozbalte svou nadílku ➡od.o2.cz/Nadelujeme",
      "id": "120461304659141_1252350318136895"
    },
    {
      "created_time": "2016-11-04T15:22:01+0000",
      "message": "Rozlučte se se strašidelným světem předplacených hovorů a omezených minut do cizích sítí. S předplaDENkou všechna omezení končí ➡ od.o2.cz/predpla_den_ka",
      "id": "120461304659141_1238764139495513"
    },
    {
      "created_time": "2016-11-03T16:12:01+0000",
      "message": "Cirque du Soleil se chystá poprvé v historii přivézt do České republiky svou mimořádnou produkci s názvem Varekai. :) \nZískejte lístky jako první ➡ od.o2.cz/jsemtuprga",
      "id": "120461304659141_1246690092036251"
    },
    {
      "created_time": "2016-11-02T16:11:00+0000",
      "message": "SNAPCHAT nebo INSTA STORIES? \nČemu dáváte přednost vy? Dejte nám vědět do komentářů ⬇ ⬇ ⬇",
      "id": "120461304659141_1245058115532782"
    },
    {
      "created_time": "2016-11-01T14:37:40+0000",
      "message": "Vyzvedněte si v Moje O2 svou vánoční nadílku už dnes ;)\n• 30 GB dat navíc\n• Neomezené volání\n• Maximum programů v O2 TV\n• Nejrychlejší internet na doma\nDojděte si pro dárky na ➡od.o2.cz/darkyodO2",
      "id": "120461304659141_1243913855647208"
    },
    {
      "created_time": "2016-11-01T13:01:14+0000",
      "message": "Na dva měsíce pouštíme všechny služby na maximum. Noví i stávající zákazníci si tak můžou vyzkoušet, co všechno jim Chytrá síť umožní.\n\nDojděte si pro nadílku na www.o2.cz/vanoce",
      "story": "O2 CZ updated their cover photo.",
      "id": "120461304659141_1243880952317165"
    },
    {
      "created_time": "2016-11-01T13:00:46+0000",
      "message": "Na dva měsíce pouštíme všechny služby na maximum. Noví i stávající zákazníci si tak můžou vyzkoušet, co všechno jim Chytrá síť umožní.\n\nRozbalte si nadílku na www.o2.cz/vanoce",
      "story": "O2 CZ updated their profile picture.",
      "id": "120461304659141_1243880555650538"
    },
    {
      "created_time": "2016-11-01T11:01:00+0000",
      "message": "Děsivá noc za rozbřesku ustala, skřeky a duchy za sebou nechala, avšak jedna dívka se nebála, iPhone 7 za odvahu získala.\n\nGratulujeme TEREZE PELCOVÉ, že přijla naši výzvu a postavila se jí čelem. 👻 Za odvahu posíláme iPhone 7 v děsivě černé barvě.",
      "id": "120461304659141_1243782255660368"
    },
    {
      "created_time": "2016-10-31T22:59:00+0000",
      "message": "Půlnoční #O2Halloween výzva je tady! 👻👻👻\nPošli nám na Snapchatu Snapselfie tak děsivé, že nám v žilách ztuhne krev a jste ve hře o nový iPhone.\n\nČas běží... Čekáme do 2:00.\nVítězný snap vyhlásíme 1.11. v poledne na Snapchatu a tady na FB.",
      "id": "120461304659141_1243115012393759"
    },
    {
      "created_time": "2016-10-31T22:00:00+0000",
      "message": "Nejtemnější noc roku se blíží, duchové svolávají svou rodinu. Oči se vám možná klíží, vydržte ještě hodinu! #O2Halloween\n🎃🎃🎃🎃🎃🎃🎃👻👻👻👻👻👻👻",
      "id": "120461304659141_1243120779059849"
    },
    {
      "created_time": "2016-10-31T16:03:36+0000",
      "message": "Dnešní noc prozradí víc, než chcete. Chlad a mračna stahují se nad zemí. Kdo Snapchat o2_cz sleduje, toho půlnoční výzva hrou o iPhone odmění. #O2Halloween\n\nPřidej si O2_cz na Snapchatu a vyčkej do půlnoci.\n➡od.o2.cz/O2-Halloween",
      "id": "120461304659141_1243063972398863"
    },
    {
      "created_time": "2016-10-30T20:31:22+0000",
      "message": "Děsivá výzva #O2Halloween je tady.\nSledujte O2_cz na Snapchatu a hrajte o iPhone 7 ;)\n\nVíce na http://od.o2.cz/O2-Halloween",
      "story": "O2 CZ updated their profile picture.",
      "id": "120461304659141_1242222412483019"
    },
    {
      "created_time": "2016-10-30T20:27:55+0000",
      "message": "Děsivá výzva #O2Halloween je tady.\nSledujte O2_cz na Snapchatu a hrajte o iPhone 7 ;)\n\nVíce na http://od.o2.cz/O2-Halloween",
      "story": "O2 CZ updated their cover photo.",
      "id": "120461304659141_1242219622483298"
    },
    {
      "created_time": "2016-10-29T07:33:00+0000",
      "message": "Slaďte se s barvami podzimu 🍂 🍁 🍃 a udělejte si radost na ZOOT. Ještě do neděle můžete díky Extra výhodám nakupovat s 20% slevou.\n➡ od.o2.cz/chcinovystanik",
      "id": "120461304659141_1240043576034236"
    },
    {
      "created_time": "2016-10-25T16:47:00+0000",
      "message": "Rozlučte se se strašidelným světem předplacených karet. 😱 Volejte neomezeně s naší předplaDENkou. ➡ od.o2.cz/den_ka",
      "id": "120461304659141_1236433596395234"
    },
    {
      "created_time": "2016-10-21T09:30:01+0000",
      "message": "Léto už je za námi a je čas připravit se na zimu. ⛄ Udělejte si radost novými kousky do svého šatníku. V ZOOT díky Extra výhodám získáte 20% slevu. ➡ od.o2.cz/chcizoot",
      "id": "120461304659141_1231679103537350"
    },
    {
      "created_time": "2016-10-20T13:01:38+0000",
      "message": "Duel nesmiřitelných mezi Plzní a Spartou je tady! ⚽\nVyzvedněte si svůj O2 TV Sport na zkoušku a koukejte se on-line zdarma.\n➡od.o2.cz/ViktorkaSparta",
      "id": "120461304659141_1231495320222395"
    },
    {
      "created_time": "2016-10-19T16:40:01+0000",
      "message": "S O2 TV vám nic neunikne. Umíme totiž cestovat v čase a vy tak můžete být u každého důležitého momentu vašeho oblíbeného týmu. (y) \nUž máte svůj O2 TV Sport ? ➡ od.o2.cz/vratitcas",
      "story": "O2 CZ shared O2 TV's video.",
      "id": "120461304659141_1230652080306719"
    },
    {
      "created_time": "2016-10-19T07:13:00+0000",
      "message": "Jsme rádi, že jsme mohli být technologickým partnerem SIGNAL festival a už teď se těšíme na další ročník. Která instalace vás ohromila nejvíce? :) Dejte nám vědět do komentářů ⬇ ⬇ ⬇",
      "story": "O2 CZ added 6 new photos.",
      "id": "120461304659141_1230081980363729"
    },
    {
      "created_time": "2016-10-14T12:12:51+0000",
      "message": "Už máte všechny podzimní nezbytnosti? <3 Na www.extravyhody.cz je najdete všechny. Získejte slevu na měkkoučké šály a plédy z C&A nebo na krásu z SEPHORA. Každý, kdo si vyzvedne svou slevu, se tím zařadí do soutěže o 20 lesků na rty značky Sephora nebo poukázky do C&A.\nTak šup pro výhodu do Sephory ➡ od.o2.cz/chcisephoru\nNebo do C&A ➡ od.o2.cz/chci_ca\n\nPravidla soutěže ➡ od.o2.cz/extrasoutez",
      "id": "120461304659141_1224201077618486"
    },
    {
      "created_time": "2016-10-13T10:23:12+0000",
      "message": "Pozor ⚠ Na našem e-shopu bylo spatřeno slevové tornádo. ⚠Vlajkové lodě Huawei nebo Samsung zde najdete se slevou až 3000 Kč. Pokud už nějakou dobu přemýšlíte o novém telefonu, teď je ten správný čas. (y)",
      "id": "120461304659141_1223822847656309"
    },
    {
      "created_time": "2016-10-11T17:03:00+0000",
      "message": "Podívejte se, co nového umí iPhone 7 a dejte nám vědět, která z nových funkcí se vám líbí nejvíc. :) A pokud vás sedmička přesvědčila natolik, že jste se rozhodli si ji pořídit, tak mrkněte sem ➡ od.o2.cz/chcisedmicku",
      "id": "120461304659141_1221848031187124"
    },
    {
      "created_time": "2016-10-10T17:31:00+0000",
      "message": "Co kdyby všechna omezení předplacené karty navždy skončila? Volejte neomezeně do všech sítí jen za 20 Kč / den ➡ od.o2.cz/naDEN",
      "id": "120461304659141_1220949234610337"
    },
    {
      "created_time": "2016-10-10T15:01:58+0000",
      "message": "Reality show plná odhodlání, dřiny a emocí. To je OKTAGON. Nenechte si ujít první díl dnes ve 21.00 na O2 TV Sport Buďte s námi u toho ➡ od.o2.cz/chcitovidet",
      "id": "120461304659141_1220964834608777"
    },
    {
      "created_time": "2016-10-07T17:47:00+0000",
      "message": "Jsou i na vašem oblíbeném místě ukryta data? Mrkněte se do aplikace DATOMAT a zaregistrujte se na ➡ od.o2.cz/chci_data",
      "id": "120461304659141_1218363801535547"
    },
    {
      "created_time": "2016-10-06T08:29:01+0000",
      "message": "K narozeninám, do nového semestru nebo prostě jen tak? Pořiďte si nový iPhone. <3 Právě teď ho seženete nejvýhodněji. ➡ od.o2.cz/sestkabezctyrky",
      "id": "120461304659141_1216586311713296"
    },
    {
      "created_time": "2016-10-05T16:13:06+0000",
      "message": "Skoncujte s omezenými hovory a volejte do všech sítí za dvacku denně \n➡ od.o2.cz/Predpladenkaa",
      "id": "120461304659141_1216134071758520"
    },
    {
      "created_time": "2016-10-04T15:10:17+0000",
      "message": "Who Let the Dogs Out? :)\nPusťte je dnes proběhnout - je Mezinárodní den zvířat! Ve Spotify najdete hudební nálož pro každý den a u nás bez spotřeby dat.",
      "id": "120461304659141_1214867295218531"
    },
    {
      "created_time": "2016-10-03T16:52:00+0000",
      "message": "Sledujete nás na Instagramu? <3 Dejte nám follow a instagramujte s námi.",
      "id": "120461304659141_1214088598629734"
    },
    {
      "created_time": "2016-10-02T16:02:00+0000",
      "message": "Ulovit si data v Datomatu může být někdy pořádná fuška. Ale zato jich můžete za měsíc nasbírat třeba 5 giga. (y)\nZaregistrujte se a získejte 20 giga do začátku ➡ od.o2.cz/azpetgiga",
      "id": "120461304659141_1210379345667326"
    },
    {
      "created_time": "2016-10-01T08:04:00+0000",
      "message": "Neválej se o víkendu na gauči!\nPřihlas vlastní nápad do O2 SmartUp a my ti na něj dáme balík peněz ;)",
      "story": "O2 CZ shared O2 SmartUp's video.",
      "id": "120461304659141_1211292288909365"
    },
    {
      "created_time": "2016-09-30T10:39:59+0000",
      "message": "Už máte taky Spotify v češtině? :)\nJsme moc rádi, že díky spolupráci s námi se tahle aplikace s více než 30 miliony skladeb naučila česky. Tak pokud ještě nemáte, stahujte Spotify a poslouchejte oblíbené písničky bez čerpání dat.",
      "story": "O2 CZ with Michal Hampl.",
      "id": "120461304659141_1211100302261897"
    },
    {
      "created_time": "2016-09-29T16:12:00+0000",
      "message": "Bronzu už brzy moc nenachytáme, ale data tu jsou pořád. Registrujte se do Datomatu a do začátku vám dáme 20 giga ➡ od.o2.cz/chytejdata",
      "id": "120461304659141_1210375652334362"
    },
    {
      "created_time": "2016-09-27T16:52:01+0000",
      "message": "Jste hudební fajnšmekři a dokážete správně přiřadit song k té pravé situaci? Ukažte nám to ➡ od.o2.cz/testshody",
      "id": "120461304659141_1208691722502755"
    },
    {
      "created_time": "2016-09-26T16:39:00+0000",
      "message": "Už jste našli svá první 3 giga? :) Prozraďte nám, kde ⬇",
      "id": "120461304659141_1207768032595124"
    },
    {
      "created_time": "2016-09-24T07:05:00+0000",
      "message": "Derby AC Sparta Praha - SK Slavia Praha je totálně vyprodané, ale vy můžete být u toho. Fanděte ONLINE a sledujte bitvu o Prahu na O2 TV Sport. Teď na 30 dnů ZDARMA ➡ od.o2.cz/BitvaS",
      "id": "120461304659141_1205127319525862"
    },
    {
      "created_time": "2016-09-23T11:33:51+0000",
      "message": "Ceny iPhonů padají dolů ⚡⚡⚡\nVyberte si ten svůj ;)",
      "id": "120461304659141_1205046252867302"
    },
    {
      "created_time": "2016-09-23T10:12:36+0000",
      "message": "Sledujte zdarma on-line vyprodané derby Sparta - Slavia ;) \nVyzvedněte si O2 TV Sport na 30 dnů ZDARMA.\n➡od.o2.cz/DerbyS",
      "id": "120461304659141_1204998646205396"
    },
    {
      "created_time": "2016-09-22T16:28:53+0000",
      "message": "V O2 Hubu jsme dnes přivítali Adama Marčana, zakladatele Naučmese.cz, Denisu Havrdovou, zakladatelku papelote a Petra Ludwiga, autora knihy Konec prokrastinace. Sledujte LIVE na O2 SmartUp (y)",
      "story": "O2 CZ shared O2 SmartUp's live video.",
      "id": "120461304659141_1204399126265348"
    },
    {
      "created_time": "2016-09-22T15:51:01+0000",
      "message": "Léto nám už definitivně skončilo, ale depku z toho mít nemusíte. ☀ \nSe Spotify vám bude podzimní listí křupat pod nohama do rytmu těch nejlepších songů. Jak jste si užili první podzimní den? 🍂",
      "id": "120461304659141_1204370199601574"
    },
    {
      "created_time": "2016-09-20T15:10:00+0000",
      "message": "Už jste vyzkoušeli appku Tapito ? Všechny důležité noviny nebo magazíny najdete zdarma a pohodlně v jedné aplikaci. \nVyzkoušejte ➡ http://bit.ly/stahujTAPITO",
      "id": "120461304659141_1202715566433704"
    },
    {
      "created_time": "2016-09-19T17:48:00+0000",
      "message": "Staré vzpomínky nemusí být ztraceny. Zdigitalizovat je zvládne i váš smartphone. Přiveďte staré fotky zpátky k životu :)",
      "id": "120461304659141_1202012149837379"
    },
    {
      "created_time": "2016-09-17T18:16:00+0000",
      "message": "Aftermovie z O2 Ynspirology CON je na světě. Podívejte se na facebook Datomat a nezapomeňte dát LIKE (y)",
      "id": "120461304659141_1200002073371720"
    },
    {
      "created_time": "2016-09-17T08:36:00+0000",
      "message": "Vytrvalost, odříkání, touha. Zápasníci MMA dávají do boje vše. Sledujte jejich úsilí uspět v ringu i osudy z vily už od 10.října na O2 TV Sport.",
      "id": "120461304659141_1199972576708003"
    },
    {
      "created_time": "2016-09-16T10:32:02+0000",
      "message": "Snese kapku vody i více dat. S optickou stabilizací pořídí fotky s nejvíce srdíčky <3 na Instagramu. Je 2x rychlejší než iPhone 6.\nBuďte prvními majiteli nového iPhone 7 ➡ od.o2.cz/chcihoprvni",
      "id": "120461304659141_1199274466777814"
    },
    {
      "created_time": "2016-09-15T18:21:13+0000",
      "message": "Ynspy City navštívilo přes 3000 lidí, kteří se zde potkali s více než 40 inspirátory. Podívejte se, jak v sobotu ožilo kontejnerové městečko. <3",
      "story": "O2 CZ shared Ynspirology's album.",
      "id": "120461304659141_1198779483493979"
    },
    {
      "created_time": "2016-09-13T13:58:01+0000",
      "message": "Právě dnes startuje UEFA Champions League a jen na O2 TV ji můžete sledovat v multidimenzi. (y) \nSledujte Ligu mistrů a další soutěže na O2 TV Sport 30 dnů úplně zadarmo ➡ od.o2.cz/30dnusportu",
      "id": "120461304659141_1196980980340496"
    },
    {
      "created_time": "2016-09-10T14:45:45+0000",
      "story": "O2 CZ was live.",
      "id": "120461304659141_1194245650614029"
    },
    {
      "created_time": "2016-09-10T13:31:14+0000",
      "story": "O2 CZ was live.",
      "id": "120461304659141_1194199547285306"
    },
    {
      "created_time": "2016-09-10T11:27:49+0000",
      "message": "Na O2 Ynspirology CONu to inspirací překypuje a to natolik, že to ani Facebook neunesl. :( Naštěstí máme ještě YouTube a tak LIVESTREAM můžete sledovat zde >>>",
      "id": "120461304659141_1194127293959198"
    },
    {
      "created_time": "2016-09-10T10:27:14+0000",
      "message": "Na O2 Ynspirology CONu to žije! Buďte u toho s námi a sledujte LIVESTREAM.",
      "id": "120461304659141_1194086827296578"
    },
    {
      "created_time": "2016-09-10T10:07:02+0000",
      "story": "O2 CZ was live.",
      "id": "120461304659141_1194075113964416"
    },
    {
      "created_time": "2016-09-09T19:10:36+0000",
      "message": "Datomat je LIVE! :) Sledujte přímý přenos z O2 Ynspirology CONu v sobotu od 11:00 na facebooku O2 CZ a Datomat (y)",
      "id": "120461304659141_1193573967347864"
    },
    {
      "created_time": "2016-09-09T12:21:29+0000",
      "message": "Máme tady nějaké fandy UEFA Champions League? :)\nVyzvedněte si O2 TV Sport na 30 dnů ZDARMA a sledujte start Ligy mistrů.\nVyzvednout tady ➡od.o2.cz/O2TVSport-ZDARMA",
      "id": "120461304659141_1193299164042011"
    },
    {
      "created_time": "2016-09-08T18:40:58+0000",
      "message": "20 GB mobilních dat jen tak, za jednoduchou registraci❔❗\nJop, pojď si pro ně hned teď a další sbírej na každém kroku ;-) \n➡ od.o2.cz/Datomatdata",
      "story": "O2 CZ shared Datomat's post.",
      "id": "120461304659141_1192742620764332"
    },
    {
      "created_time": "2016-09-08T14:03:06+0000",
      "message": "Že ještě nemáte plány na sobotu? Dorazte na O2 Ynspirology CON​ (y)",
      "id": "120461304659141_1192532930785301"
    },
    {
      "created_time": "2016-09-07T19:40:45+0000",
      "message": "Tak co na něj říkáte :) Líbí?\n\n- Voděodolnost\n- Duální fotoaparát\n- Dvě nová barevná provedení\n- Konec 3,5mm jack konektoru\n- Nové Home tlačítko\n- Stereo reproduktory",
      "story": "O2 CZ added 6 new photos.",
      "id": "120461304659141_1191835450855049"
    },
    {
      "created_time": "2016-09-06T18:06:44+0000",
      "message": "Vyzvedni si 20 GB jen za registraci na www.datomat.cz",
      "story": "O2 CZ updated their cover photo.",
      "id": "120461304659141_1190806907624570"
    },
    {
      "created_time": "2016-09-06T18:04:48+0000",
      "message": "Tohle NENÍ jen video na Facebooku ⚡\nTo je 20 GB mobilních dat za jednoduchou registraci.\nVyzvedni si je ➡od.o2.cz/DATOMAT",
      "story": "O2 CZ shared Datomat's video.",
      "id": "120461304659141_1190805707624690"
    },
    {
      "created_time": "2016-09-05T17:26:06+0000",
      "message": "Už zítra vám tady ukážeme nový spot pro Datomat, který jsme pro vás připravili spolu s Johny Machette a Teri Blitzen ;)\n\nOfiko spouštíme až na O2 Ynspirology CON, ale pro 20 GB za registraci na www.datomat.cz si můžete dojít už teď.",
      "story": "O2 CZ shared Johny Machette's post.",
      "id": "120461304659141_1189965814375346"
    },
    {
      "created_time": "2016-09-04T07:37:00+0000",
      "message": "Hudební workshop, virtuální realita, gaming, škola parkouru, slackline...a víte co? Přijďte se podívat na živo. V sobotu 10. září k Metropoli Zličín na O2 Ynspirology CON. Tak nám tam hoďte \"zúčastním se\". (y)\nA pro zákazníky O2 máme lístek o 100 Kč levnější ➡ od.o2.cz/jdunaynspiro",
      "id": "120461304659141_1186728391365755"
    },
    {
      "created_time": "2016-09-02T13:33:00+0000",
      "message": "Digitál, tvorba, pohyb, rytmus, ynspirace. O tom bude O2 Ynspirology CON. Přijďte v sobotu 10. září k Metropoli Zličín a pojďte společně s námi ukázat, co dokáže Generace Y.\nA pokud jste u O2, nezapomeňte si vyzvednout svůj lístek na www.extravyhody.cz ➡ od.o2.cz/jdunaynspiro",
      "id": "120461304659141_1186726941365900"
    },
    {
      "created_time": "2016-09-01T17:53:01+0000",
      "message": "Dřív jsme potřebovali celý batoh, dnes se spousta školních pomůcek vejde do jednoho telefonu. Jaké appky ve školním roce nejčastěji používáte? :)",
      "id": "120461304659141_1186682434703684"
    },
    {
      "created_time": "2016-08-31T16:30:12+0000",
      "message": "Stojan na telefon jde udělat z čehokoliv. My si na pomoc vzali retro obal na audio kazetu :) Pochlubte se, na co si telefon pokládáte vy. ⬇",
      "id": "120461304659141_1185760288129232"
    },
    {
      "created_time": "2016-08-30T09:36:47+0000",
      "message": "Už máte svůj lístek na O2 Ynspirology CON? Pokud ne, tak mrkněte na Extra výhody. Protože jen pro vás ho máme o stovku levnější. (y) \n➡ od.o2.cz/jdunaynspiro",
      "story": "O2 CZ shared Ynspirology's event.",
      "id": "120461304659141_1184537644918163"
    },
    {
      "created_time": "2016-08-29T17:50:06+0000",
      "message": "Od konce srpna se můžete těšit na více tenisových duelů českých sportovců z prestižního US Open. Sledujte na O2 TV Sport právě teď (y)",
      "story": "O2 CZ shared O2 TV's video.",
      "id": "120461304659141_1184018808303380"
    },
    {
      "created_time": "2016-08-26T14:48:34+0000",
      "message": "O2 prodejnu v Berouně jsme proměnili v tropickou pláž v Karibiku 🌴  a našim zákazníkům zpříjemnili letní den zmrzlinou. 🍦",
      "story": "O2 CZ added 9 new photos.",
      "id": "120461304659141_1181314028573858"
    },
    {
      "created_time": "2016-08-25T13:50:02+0000",
      "message": "Huawei na své nové vlajkové lodi spolupracoval s Leicou. A tak si můžete být jistí, že s novou P9 pořídíte ty nejlepší fotky a budete hvězda Instagramu. S sebou do Velkočeska si ho vzala i parta Najforever. Mrkněte se na jejich fotky na Instagram. P9 si můžete prohlédnout v našem e-shopu ➡ od.o2.cz/velkoceska",
      "id": "120461304659141_1180484608656800"
    },
    {
      "created_time": "2016-08-24T16:49:16+0000",
      "message": "Už jste si byli pro svá data z víčka Coca-Coly? Ještě týden si je můžete vyzvednout na www.datomat.cz (y)",
      "id": "120461304659141_1179752358730025"
    },
    {
      "created_time": "2016-08-23T18:26:04+0000",
      "message": "O2 TV včera ovládla nová řada Fear the Walking Dead!\nByl to jako vždycky masakr. Díky zpětnému zhlédnutí se na něj můžete podívat třeba právě teď ;)",
      "story": "O2 CZ shared O2 TV's note.",
      "id": "120461304659141_1178975682141026"
    },
    {
      "created_time": "2016-08-22T18:29:28+0000",
      "message": "Prázdniny ještě neskončily a třeba se chystáte někam na výlet. \nDnes tu máme jeden chytrý tip na to, co dělat, když si doma zapomenete nabíječku. (y)",
      "id": "120461304659141_1178131022225492"
    }
  ],
  "paging": {
    "cursors": {
      "before": "Q2c4U1pXNTBYM0YxWlhKNVgzTjBiM0o1WDJsa0R5UXhNakEwTmpFek1EUTJOVGt4TkRFNkxUUXlOakUzT1RFME5qUTFPREkyT0RFNU9ESVBER0ZA3YVY5emRHOXllVjlwWkE4ZA01USXdORFl4TXpBME5qVTVNVFF4WHpFeU9EZAzFPVFF3TURRMU1USTFNallQQkhScGJXVUdXRTdiVUFFPQZDZD",
      "after": "Q2c4U1pXNTBYM0YxWlhKNVgzTjBiM0o1WDJsa0R5UXhNakEwTmpFek1EUTJOVGt4TkRFNkxUWXdORGt4TURjNE9USTRNVFF5TlRFMk5ESVBER0ZA3YVY5emRHOXllVjlwWkE4ZA01USXdORFl4TXpBME5qVTVNVFF4WHpFeE56ZA3hNekV3TWpJeU1qVTBPVElQQkhScGJXVUdWN3RFaUFFPQZDZD"
    },
    "next": "https://graph.facebook.com/v2.9/120461304659141/posts?access_token=EAASIpromB9sBALVqcAZBVbd1i8DsCZC7nN9nMCtsumzZCUBPtGWyMiuxZCTjo5v6iZAQl1rZCwa5ZAOKBJAPF8z9n3m3U5LSjkDJkSILiKnBZCGiZB9uP0ENVL7xMOX81PFE2oPnMZAu0eMLLw00DQS1DdDka9ArAqlweZBWg6xlTcfxQZDZD&pretty=1&limit=100&after=Q2c4U1pXNTBYM0YxWlhKNVgzTjBiM0o1WDJsa0R5UXhNakEwTmpFek1EUTJOVGt4TkRFNkxUWXdORGt4TURjNE9USTRNVFF5TlRFMk5ESVBER0ZA3YVY5emRHOXllVjlwWkE4ZA01USXdORFl4TXpBME5qVTVNVFF4WHpFeE56ZA3hNekV3TWpJeU1qVTBPVElQQkhScGJXVUdWN3RFaUFFPQZDZD",
    "previous": "https://graph.facebook.com/v2.9/120461304659141/posts?access_token=EAASIpromB9sBALVqcAZBVbd1i8DsCZC7nN9nMCtsumzZCUBPtGWyMiuxZCTjo5v6iZAQl1rZCwa5ZAOKBJAPF8z9n3m3U5LSjkDJkSILiKnBZCGiZB9uP0ENVL7xMOX81PFE2oPnMZAu0eMLLw00DQS1DdDka9ArAqlweZBWg6xlTcfxQZDZD&pretty=1&limit=100&before=Q2c4U1pXNTBYM0YxWlhKNVgzTjBiM0o1WDJsa0R5UXhNakEwTmpFek1EUTJOVGt4TkRFNkxUUXlOakUzT1RFME5qUTFPREkyT0RFNU9ESVBER0ZA3YVY5emRHOXllVjlwWkE4ZA01USXdORFl4TXpBME5qVTVNVFF4WHpFeU9EZAzFPVFF3TURRMU1USTFNallQQkhScGJXVUdXRTdiVUFFPQZDZD"
  }
}